0,50 GHIACCIOLO
1,00 GELATO DA 1 EURO
1,10 GELATO DA 1,10 EURO
1,20 GELATO DA 1,20 EURO
1,30 GELATO DA 1,30 EURO
1,40 GELATO DA 1,40 EURO
1,50 GELATO DA 1,50 EURO
1,60 GELATO DA 1,60 EURO
1,70 GELATO DA 1,70 EURO
1,80 GELATO DA 1,80 EURO
1,90 GELATO DA 1,90 EURO
2,00 GELATO DA 2,00 EURO